module gitlab.com/phcyso/advent_of_code

require (
	github.com/cweill/gotests v1.5.2 // indirect
	github.com/davecgh/go-spew v1.1.1 // indirect
	github.com/pmezard/go-difflib v1.0.0 // indirect
	github.com/stretchr/testify v1.2.2
	golang.org/x/tools v0.0.0-20181201035826-d0ca3933b724 // indirect
)
